-------------------------------------------------------------------------------
Test set: AcceptanceTests.AssignmentTest
-------------------------------------------------------------------------------
Tests run: 2, Failures: 0, Errors: 0, Skipped: 0, Time elapsed: 5.183 sec
